PCBNEW-LibModule-V1  2021-06-02 13:47:27
# encoding utf-8
Units mm
$INDEX
SOP65P640X110-17N
$EndINDEX
$MODULE SOP65P640X110-17N
Po 0 0 0 15 60b77ddf 00000000 ~~
Li SOP65P640X110-17N
Cd LTC3124IFE#PBF
Kw Integrated Circuit
Sc 0
At SMD
AR 
Op 0 0 0
T0 0 0 1.27 1.27 0 0.254 N V 21 N "IC**"
T1 0 0 1.27 1.27 0 0.254 N I 21 N "SOP65P640X110-17N"
DS -3.9 -2.8 3.9 -2.8 0.05 24
DS 3.9 -2.8 3.9 2.8 0.05 24
DS 3.9 2.8 -3.9 2.8 0.05 24
DS -3.9 2.8 -3.9 -2.8 0.05 24
DS -2.2 -2.5 2.2 -2.5 0.1 24
DS 2.2 -2.5 2.2 2.5 0.1 24
DS 2.2 2.5 -2.2 2.5 0.1 24
DS -2.2 2.5 -2.2 -2.5 0.1 24
DS -2.2 -1.85 -1.55 -2.5 0.1 24
DS -3.65 -2.85 -2.2 -2.85 0.2 21
$PAD
Po -2.925 -2.275
Sh "1" R 0.45 1.45 0 0 900
At SMD N 00888000
Ne 0 ""
$EndPAD
$PAD
Po -2.925 -1.625
Sh "2" R 0.45 1.45 0 0 900
At SMD N 00888000
Ne 0 ""
$EndPAD
$PAD
Po -2.925 -0.975
Sh "3" R 0.45 1.45 0 0 900
At SMD N 00888000
Ne 0 ""
$EndPAD
$PAD
Po -2.925 -0.325
Sh "4" R 0.45 1.45 0 0 900
At SMD N 00888000
Ne 0 ""
$EndPAD
$PAD
Po -2.925 0.325
Sh "5" R 0.45 1.45 0 0 900
At SMD N 00888000
Ne 0 ""
$EndPAD
$PAD
Po -2.925 0.975
Sh "6" R 0.45 1.45 0 0 900
At SMD N 00888000
Ne 0 ""
$EndPAD
$PAD
Po -2.925 1.625
Sh "7" R 0.45 1.45 0 0 900
At SMD N 00888000
Ne 0 ""
$EndPAD
$PAD
Po -2.925 2.275
Sh "8" R 0.45 1.45 0 0 900
At SMD N 00888000
Ne 0 ""
$EndPAD
$PAD
Po 2.925 2.275
Sh "9" R 0.45 1.45 0 0 900
At SMD N 00888000
Ne 0 ""
$EndPAD
$PAD
Po 2.925 1.625
Sh "10" R 0.45 1.45 0 0 900
At SMD N 00888000
Ne 0 ""
$EndPAD
$PAD
Po 2.925 0.975
Sh "11" R 0.45 1.45 0 0 900
At SMD N 00888000
Ne 0 ""
$EndPAD
$PAD
Po 2.925 0.325
Sh "12" R 0.45 1.45 0 0 900
At SMD N 00888000
Ne 0 ""
$EndPAD
$PAD
Po 2.925 -0.325
Sh "13" R 0.45 1.45 0 0 900
At SMD N 00888000
Ne 0 ""
$EndPAD
$PAD
Po 2.925 -0.975
Sh "14" R 0.45 1.45 0 0 900
At SMD N 00888000
Ne 0 ""
$EndPAD
$PAD
Po 2.925 -1.625
Sh "15" R 0.45 1.45 0 0 900
At SMD N 00888000
Ne 0 ""
$EndPAD
$PAD
Po 2.925 -2.275
Sh "16" R 0.45 1.45 0 0 900
At SMD N 00888000
Ne 0 ""
$EndPAD
$PAD
Po 0 0
Sh "17" R 2.94 3.58 0 0 0
At SMD N 00888000
Ne 0 ""
$EndPAD
$EndMODULE SOP65P640X110-17N
$EndLIBRARY
