EESchema Schematic File Version 4
EELAYER 30 0
EELAYER END
$Descr A4 11693 8268
encoding utf-8
Sheet 2 4
Title ""
Date ""
Rev ""
Comp ""
Comment1 ""
Comment2 ""
Comment3 ""
Comment4 ""
$EndDescr
Wire Wire Line
	4050 2150 4650 2150
Wire Wire Line
	5800 2150 6800 2150
Text Notes 5950 2100 0    50   ~ 0
Set Op amp input Voltage to 3v3
$Comp
L Device:R_US R3
U 1 1 606CC88F
P 4800 2150
F 0 "R3" V 4595 2150 50  0000 C CNN
F 1 "1k" V 4686 2150 50  0000 C CNN
F 2 "Resistor_SMD:R_0603_1608Metric" V 4840 2140 50  0001 C CNN
F 3 "~" H 4800 2150 50  0001 C CNN
	1    4800 2150
	0    1    1    0   
$EndComp
$Comp
L power:GND #PWR02
U 1 1 6075EE78
P 6800 2150
F 0 "#PWR02" H 6800 1900 50  0001 C CNN
F 1 "GND" H 6805 1977 50  0000 C CNN
F 2 "" H 6800 2150 50  0001 C CNN
F 3 "" H 6800 2150 50  0001 C CNN
	1    6800 2150
	1    0    0    -1  
$EndComp
$Comp
L Device:D_Zener D1
U 1 1 60770528
P 5650 2150
F 0 "D1" H 5650 2366 50  0000 C CNN
F 1 "3V3" H 5650 2275 50  0000 C CNN
F 2 "Diode_SMD:D_1206_3216Metric" H 5650 2150 50  0001 C CNN
F 3 "~" H 5650 2150 50  0001 C CNN
	1    5650 2150
	1    0    0    -1  
$EndComp
Text HLabel 4050 2150 0    50   Input ~ 0
5V
Text Notes 7400 7500 0    50   ~ 0
Analog Battery Status Sub-Module
Text HLabel 4150 2650 0    50   Input ~ 0
Vbat
$Comp
L power:GND #PWR03
U 1 1 6075F5DF
P 6900 2650
F 0 "#PWR03" H 6900 2400 50  0001 C CNN
F 1 "GND" H 6905 2477 50  0000 C CNN
F 2 "" H 6900 2650 50  0001 C CNN
F 3 "" H 6900 2650 50  0001 C CNN
	1    6900 2650
	1    0    0    -1  
$EndComp
Text Notes 6050 2600 0    50   ~ 0
Get a smaller portion of the input signal
Wire Wire Line
	4750 2650 4900 2650
Connection ~ 4750 2650
Wire Wire Line
	4350 2650 4150 2650
Wire Wire Line
	5200 2650 6900 2650
Wire Wire Line
	4650 2650 4750 2650
$Comp
L Device:R_US R4
U 1 1 606D053A
P 5050 2650
F 0 "R4" V 4845 2650 50  0000 C CNN
F 1 "1k" V 4936 2650 50  0000 C CNN
F 2 "Resistor_SMD:R_0603_1608Metric" V 5090 2640 50  0001 C CNN
F 3 "~" H 5050 2650 50  0001 C CNN
	1    5050 2650
	0    1    1    0   
$EndComp
$Comp
L Device:R_US R2
U 1 1 606CFE48
P 4500 2650
F 0 "R2" V 4295 2650 50  0000 C CNN
F 1 "9k" V 4386 2650 50  0000 C CNN
F 2 "Resistor_SMD:R_0603_1608Metric" V 4540 2640 50  0001 C CNN
F 3 "~" H 4500 2650 50  0001 C CNN
	1    4500 2650
	0    1    1    0   
$EndComp
Wire Wire Line
	5500 3300 5250 3300
Wire Wire Line
	5250 3300 5250 2150
Wire Wire Line
	4950 2150 5250 2150
Wire Wire Line
	5250 2150 5500 2150
Connection ~ 5250 2150
Wire Wire Line
	5500 3500 4750 3500
Wire Wire Line
	4750 2650 4750 3500
Text HLabel 7350 3300 2    50   Input ~ 0
Vcharge
Wire Wire Line
	6900 3300 7100 3300
$Comp
L power:GND #PWR04
U 1 1 60B8286B
P 7500 5250
F 0 "#PWR04" H 7500 5000 50  0001 C CNN
F 1 "GND" H 7505 5077 50  0000 C CNN
F 2 "" H 7500 5250 50  0001 C CNN
F 3 "" H 7500 5250 50  0001 C CNN
	1    7500 5250
	1    0    0    -1  
$EndComp
$Comp
L Device:R_Small_US R5
U 1 1 60B83FB7
P 6250 4850
F 0 "R5" V 6455 4850 50  0000 C CNN
F 1 "60k" V 6364 4850 50  0000 C CNN
F 2 "Resistor_SMD:R_0603_1608Metric" H 6250 4850 50  0001 C CNN
F 3 "~" H 6250 4850 50  0001 C CNN
	1    6250 4850
	0    -1   -1   0   
$EndComp
$Comp
L Device:R_Small_US R1
U 1 1 60B844D1
P 4250 4850
F 0 "R1" V 4045 4850 50  0000 C CNN
F 1 "10k" V 4136 4850 50  0000 C CNN
F 2 "Resistor_SMD:R_0603_1608Metric" H 4250 4850 50  0001 C CNN
F 3 "~" H 4250 4850 50  0001 C CNN
	1    4250 4850
	0    1    1    0   
$EndComp
Wire Wire Line
	6350 4850 7100 4850
Wire Wire Line
	7100 4850 7100 3300
Connection ~ 7100 3300
Wire Wire Line
	7100 3300 7350 3300
Wire Wire Line
	4150 4850 3950 4850
Wire Wire Line
	4350 4850 4750 4850
Wire Wire Line
	3950 5250 5350 5250
Wire Wire Line
	3950 4850 3950 5250
Wire Wire Line
	5500 3600 4750 3600
Wire Wire Line
	4750 3600 4750 4850
Connection ~ 4750 4850
Wire Wire Line
	4750 4850 6150 4850
Connection ~ 5350 5250
Wire Wire Line
	5350 5250 7500 5250
$Comp
L AD820BRZ-REEL-REEL7:AD820BRZ-REEL-REEL7 U1
U 1 1 60B93946
P 6200 3600
F 0 "U1" H 6200 4270 50  0000 C CNN
F 1 "AD820BRZ-REEL-REEL7" H 6200 4179 50  0000 C CNN
F 2 "SOIC127P600X175-8N" H 6200 3600 50  0001 L BNN
F 3 "" H 6200 3600 50  0001 L BNN
F 4 "Analog Devices" H 6200 3600 50  0001 L BNN "SUPPLIER"
F 5 "SOIC-8" H 6200 3600 50  0001 L BNN "PACKAGE"
F 6 "AD820BRZ-REEL-REEL7" H 6200 3600 50  0001 L BNN "MPN"
F 7 "88H0198" H 6200 3600 50  0001 L BNN "OC_NEWARK"
F 8 "unknown" H 6200 3600 50  0001 L BNN "OC_FARNELL"
	1    6200 3600
	1    0    0    -1  
$EndComp
Wire Wire Line
	5500 4200 5350 4200
Wire Wire Line
	5350 4200 5350 5250
Text Notes 8100 7650 0    50   ~ 0
11/05/2021
Text Notes 10550 7650 0    50   ~ 0
1.0
$EndSCHEMATC
