EESchema Schematic File Version 4
EELAYER 30 0
EELAYER END
$Descr A4 11693 8268
encoding utf-8
Sheet 4 4
Title ""
Date ""
Rev ""
Comp ""
Comment1 ""
Comment2 ""
Comment3 ""
Comment4 ""
$EndDescr
$Comp
L Device:Battery_Cell BT1
U 1 1 60788005
P 5450 1650
F 0 "BT1" H 5568 1746 50  0000 L CNN
F 1 "4.2V Li-Ion" H 5568 1655 50  0000 L CNN
F 2 "Connector_JST:JST_PH_B2B-PH-K_1x02_P2.00mm_Vertical" V 5450 1710 50  0001 C CNN
F 3 "~" V 5450 1710 50  0001 C CNN
	1    5450 1650
	1    0    0    -1  
$EndComp
$Comp
L Device:C C2
U 1 1 6078A413
P 2400 1400
F 0 "C2" H 2515 1446 50  0000 L CNN
F 1 "1uF" H 2515 1355 50  0000 L CNN
F 2 "Capacitor_SMD:C_0805_2012Metric" H 2438 1250 50  0001 C CNN
F 3 "~" H 2400 1400 50  0001 C CNN
	1    2400 1400
	1    0    0    -1  
$EndComp
$Comp
L power:GND #PWR011
U 1 1 6078B4BE
P 4050 2350
F 0 "#PWR011" H 4050 2100 50  0001 C CNN
F 1 "GND" H 4055 2177 50  0000 C CNN
F 2 "" H 4050 2350 50  0001 C CNN
F 3 "" H 4050 2350 50  0001 C CNN
	1    4050 2350
	1    0    0    -1  
$EndComp
$Comp
L Device:R_US R19
U 1 1 6078BEB1
P 2700 1600
F 0 "R19" H 2768 1646 50  0000 L CNN
F 1 "2k" H 2768 1555 50  0000 L CNN
F 2 "Resistor_SMD:R_0603_1608Metric" V 2740 1590 50  0001 C CNN
F 3 "~" H 2700 1600 50  0001 C CNN
	1    2700 1600
	1    0    0    -1  
$EndComp
Wire Wire Line
	4650 1250 4500 1250
Wire Wire Line
	4500 1450 5150 1450
Wire Wire Line
	4050 2150 4050 2300
$Comp
L Device:C C1
U 1 1 60790B86
P 1900 1450
F 0 "C1" H 2015 1496 50  0000 L CNN
F 1 "1uF" H 2015 1405 50  0000 L CNN
F 2 "Capacitor_SMD:C_0805_2012Metric" H 1938 1300 50  0001 C CNN
F 3 "~" H 1900 1450 50  0001 C CNN
	1    1900 1450
	1    0    0    -1  
$EndComp
Text Label 2050 1100 0    50   ~ 0
5Vin
$Comp
L power:GND #PWR08
U 1 1 607914EE
P 1900 1600
F 0 "#PWR08" H 1900 1350 50  0001 C CNN
F 1 "GND" H 1905 1427 50  0000 C CNN
F 2 "" H 1900 1600 50  0001 C CNN
F 3 "" H 1900 1600 50  0001 C CNN
	1    1900 1600
	1    0    0    -1  
$EndComp
$Comp
L Device:R_US R22
U 1 1 60793969
P 4850 1800
F 0 "R22" H 4918 1846 50  0000 L CNN
F 1 "1.24k" H 4918 1755 50  0000 L CNN
F 2 "Resistor_SMD:R_0603_1608Metric" V 4890 1790 50  0001 C CNN
F 3 "~" H 4850 1800 50  0001 C CNN
	1    4850 1800
	1    0    0    -1  
$EndComp
$Comp
L Device:R_US R20
U 1 1 607955FB
P 3000 1800
F 0 "R20" H 3068 1846 50  0000 L CNN
F 1 "2k" H 3068 1755 50  0000 L CNN
F 2 "Resistor_SMD:R_0603_1608Metric" V 3040 1790 50  0001 C CNN
F 3 "~" H 3000 1800 50  0001 C CNN
	1    3000 1800
	1    0    0    -1  
$EndComp
Text Label 3500 1850 2    50   ~ 0
~PWR
Text Label 3500 2050 2    50   ~ 0
~CHRG
Text Label 4500 2050 0    50   ~ 0
~EN~
Wire Wire Line
	2700 1450 3500 1450
Wire Wire Line
	3000 1650 3500 1650
Wire Wire Line
	2400 1550 2400 2300
Wire Wire Line
	2400 2300 2700 2300
Connection ~ 4050 2300
Wire Wire Line
	4050 2300 4050 2350
Wire Wire Line
	2700 1750 2700 2300
Connection ~ 2700 2300
Wire Wire Line
	2700 2300 3000 2300
Wire Wire Line
	3000 1950 3000 2300
Connection ~ 3000 2300
Wire Wire Line
	3000 2300 4050 2300
Wire Wire Line
	4500 1650 4850 1650
Wire Wire Line
	4850 1950 4850 2300
Connection ~ 4850 2300
Wire Wire Line
	4850 2300 4700 2300
Wire Wire Line
	4500 1850 4700 1850
Wire Wire Line
	4700 1850 4700 2300
Connection ~ 4700 2300
Wire Wire Line
	4700 2300 4050 2300
$Comp
L power:GND #PWR014
U 1 1 607A1121
P 7300 3500
F 0 "#PWR014" H 7300 3250 50  0001 C CNN
F 1 "GND" H 7305 3327 50  0000 C CNN
F 2 "" H 7300 3500 50  0001 C CNN
F 3 "" H 7300 3500 50  0001 C CNN
	1    7300 3500
	1    0    0    -1  
$EndComp
$Comp
L Device:C C4
U 1 1 607A63A5
P 6050 2650
F 0 "C4" H 6165 2696 50  0000 L CNN
F 1 "10u" H 6165 2605 50  0000 L CNN
F 2 "Capacitor_SMD:C_0805_2012Metric" H 6088 2500 50  0001 C CNN
F 3 "~" H 6050 2650 50  0001 C CNN
	1    6050 2650
	1    0    0    -1  
$EndComp
$Comp
L Device:C C5
U 1 1 607A6DEB
P 6350 2800
F 0 "C5" H 6465 2846 50  0000 L CNN
F 1 "4.7u" H 6465 2755 50  0000 L CNN
F 2 "Capacitor_SMD:C_0805_2012Metric" H 6388 2650 50  0001 C CNN
F 3 "~" H 6350 2800 50  0001 C CNN
	1    6350 2800
	1    0    0    -1  
$EndComp
$Comp
L Device:R_US R23
U 1 1 607A745C
P 6550 3350
F 0 "R23" H 6618 3396 50  0000 L CNN
F 1 "28.7k" H 6618 3305 50  0000 L CNN
F 2 "Resistor_SMD:R_0603_1608Metric" V 6590 3340 50  0001 C CNN
F 3 "~" H 6550 3350 50  0001 C CNN
	1    6550 3350
	1    0    0    -1  
$EndComp
Wire Wire Line
	6050 3500 6350 3500
Connection ~ 6550 3500
Wire Wire Line
	6550 3500 7250 3500
Wire Wire Line
	6350 3500 6550 3500
$Comp
L Device:C C7
U 1 1 607AAC1B
P 8450 3350
F 0 "C7" H 8565 3396 50  0000 L CNN
F 1 "1.5n" H 8565 3305 50  0000 L CNN
F 2 "Capacitor_SMD:C_0805_2012Metric" H 8488 3200 50  0001 C CNN
F 3 "~" H 8450 3350 50  0001 C CNN
	1    8450 3350
	1    0    0    -1  
$EndComp
$Comp
L Device:R_US R27
U 1 1 607AB91A
P 8450 3050
F 0 "R27" H 8518 3096 50  0000 L CNN
F 1 "31.6k" H 8518 3005 50  0000 L CNN
F 2 "Resistor_SMD:R_0603_1608Metric" V 8490 3040 50  0001 C CNN
F 3 "~" H 8450 3050 50  0001 C CNN
	1    8450 3050
	1    0    0    -1  
$EndComp
Wire Wire Line
	8450 2850 8450 2900
Wire Wire Line
	8050 2850 8050 2900
Wire Wire Line
	8050 2850 8450 2850
Wire Wire Line
	7300 3500 8050 3500
Connection ~ 7300 3500
Wire Wire Line
	6350 2950 6350 3500
Wire Wire Line
	7250 2750 7250 3500
Wire Wire Line
	8050 3200 8050 3500
Wire Wire Line
	8050 3500 8450 3500
Connection ~ 8050 3500
$Comp
L Device:R_US R29
U 1 1 607B6C31
P 9350 2950
F 0 "R29" H 9418 2996 50  0000 L CNN
F 1 "464k" H 9418 2905 50  0000 L CNN
F 2 "Resistor_SMD:R_0603_1608Metric" V 9390 2940 50  0001 C CNN
F 3 "~" H 9350 2950 50  0001 C CNN
	1    9350 2950
	1    0    0    -1  
$EndComp
$Comp
L Device:R_US R28
U 1 1 607B76A9
P 9350 2200
F 0 "R28" H 9418 2246 50  0000 L CNN
F 1 "1.47M" H 9418 2155 50  0000 L CNN
F 2 "Resistor_SMD:R_0603_1608Metric" V 9390 2190 50  0001 C CNN
F 3 "~" H 9350 2200 50  0001 C CNN
	1    9350 2200
	1    0    0    -1  
$EndComp
Connection ~ 8450 3500
$Comp
L Device:C C8
U 1 1 607BBBFD
P 8700 1350
F 0 "C8" H 8815 1396 50  0000 L CNN
F 1 "100n" H 8815 1305 50  0000 L CNN
F 2 "Capacitor_SMD:C_0805_2012Metric" H 8738 1200 50  0001 C CNN
F 3 "~" H 8700 1350 50  0001 C CNN
	1    8700 1350
	1    0    0    -1  
$EndComp
$Comp
L Device:C C9
U 1 1 607BCA9B
P 8700 1700
F 0 "C9" H 8815 1746 50  0000 L CNN
F 1 "22u" H 8815 1655 50  0000 L CNN
F 2 "Capacitor_SMD:C_0805_2012Metric" H 8738 1550 50  0001 C CNN
F 3 "~" H 8700 1700 50  0001 C CNN
	1    8700 1700
	1    0    0    -1  
$EndComp
$Comp
L power:GND #PWR015
U 1 1 607BDE21
P 8700 1850
F 0 "#PWR015" H 8700 1600 50  0001 C CNN
F 1 "GND" H 8705 1677 50  0000 C CNN
F 2 "" H 8700 1850 50  0001 C CNN
F 3 "" H 8700 1850 50  0001 C CNN
	1    8700 1850
	1    0    0    -1  
$EndComp
Wire Wire Line
	8700 1550 8700 1500
Connection ~ 8700 1550
Wire Wire Line
	9350 2050 9350 1550
Wire Wire Line
	9350 1550 9050 1550
$Comp
L Device:C C10
U 1 1 607C7BD3
P 9050 1700
F 0 "C10" H 9165 1746 50  0000 L CNN
F 1 "22u" H 9165 1655 50  0000 L CNN
F 2 "Capacitor_SMD:C_0805_2012Metric" H 9088 1550 50  0001 C CNN
F 3 "~" H 9050 1700 50  0001 C CNN
	1    9050 1700
	1    0    0    -1  
$EndComp
Connection ~ 9050 1550
Wire Wire Line
	9050 1550 8700 1550
Wire Wire Line
	5450 1450 6050 1450
Connection ~ 5450 1450
Text Label 7950 1950 0    50   ~ 0
~SD
Text Notes 3700 850  0    50   ~ 0
Battery Charging Circuit
Text Notes 6600 950  0    50   ~ 0
Battery Boost and Regulation Circuit
Text Label 9650 4850 2    50   ~ 0
~PWR
Text Label 9650 5050 2    50   ~ 0
~CHRG
Text Label 9350 1550 0    50   ~ 0
5Vbat
$Comp
L Power_Management:LTC4412xS6 U2
U 1 1 608A01E9
P 1850 5100
F 0 "U2" H 1800 5100 50  0000 C CNN
F 1 "LTC4412xS6" H 2150 4750 50  0000 C CNN
F 2 "Package_TO_SOT_SMD:TSOT-23-6" H 2500 4750 50  0001 C CNN
F 3 "https://www.analog.com/media/en/technical-documentation/data-sheets/4412fb.pdf" H 3950 4900 50  0001 C CNN
	1    1850 5100
	1    0    0    -1  
$EndComp
$Comp
L power:GND #PWR07
U 1 1 608A69F4
P 1850 5600
F 0 "#PWR07" H 1850 5350 50  0001 C CNN
F 1 "GND" H 1855 5427 50  0000 C CNN
F 2 "" H 1850 5600 50  0001 C CNN
F 3 "" H 1850 5600 50  0001 C CNN
	1    1850 5600
	1    0    0    -1  
$EndComp
Wire Wire Line
	1850 5600 1850 5500
Wire Wire Line
	1450 5200 1450 5500
Wire Wire Line
	1450 5500 1850 5500
Connection ~ 1850 5500
Text Label 750  4950 0    50   ~ 0
5Vbat
Text Label 1150 4050 0    50   ~ 0
5Vin
Wire Wire Line
	1450 5000 1300 5000
Wire Wire Line
	750  5000 750  4950
$Comp
L Device:Q_PMOS_DGS Q1
U 1 1 608B908F
P 1850 4500
F 0 "Q1" V 2192 4500 50  0000 C CNN
F 1 "Q_PMOS_DGS" V 2101 4500 50  0000 C CNN
F 2 "Package_TO_SOT_SMD:SOT-23" H 2050 4600 50  0001 C CNN
F 3 "~" H 1850 4500 50  0001 C CNN
	1    1850 4500
	0    -1   -1   0   
$EndComp
$Comp
L Device:Q_PMOS_DGS Q2
U 1 1 608BB6A3
P 2550 4150
F 0 "Q2" V 2892 4150 50  0000 C CNN
F 1 "Q_PMOS_DGS" V 2801 4150 50  0000 C CNN
F 2 "Package_TO_SOT_SMD:SOT-23" H 2750 4250 50  0001 C CNN
F 3 "~" H 2550 4150 50  0001 C CNN
	1    2550 4150
	0    -1   -1   0   
$EndComp
Wire Wire Line
	1300 5000 1300 4400
Wire Wire Line
	1300 4400 1650 4400
Connection ~ 1300 5000
Wire Wire Line
	1300 5000 750  5000
Wire Wire Line
	2050 4400 2350 4400
Wire Wire Line
	2350 4400 2350 5000
Wire Wire Line
	2350 5000 2250 5000
Wire Wire Line
	2250 5200 2550 5200
Wire Wire Line
	2550 5200 2550 4350
Wire Wire Line
	1150 4050 2350 4050
Wire Wire Line
	2750 4050 2750 4400
Wire Wire Line
	2750 4400 2350 4400
Connection ~ 2350 4400
Wire Wire Line
	2750 4400 3000 4400
Connection ~ 2750 4400
Wire Wire Line
	2550 5200 2650 5200
Connection ~ 2550 5200
Text Label 2650 5200 0    50   ~ 0
STAT
$Comp
L Device:C C3
U 1 1 608DEE57
P 3000 4550
F 0 "C3" H 3115 4596 50  0000 L CNN
F 1 "1n" H 3115 4505 50  0000 L CNN
F 2 "Capacitor_SMD:C_0805_2012Metric" H 3038 4400 50  0001 C CNN
F 3 "~" H 3000 4550 50  0001 C CNN
	1    3000 4550
	1    0    0    -1  
$EndComp
$Comp
L power:GND #PWR09
U 1 1 608E0A0C
P 3000 4700
F 0 "#PWR09" H 3000 4450 50  0001 C CNN
F 1 "GND" H 3005 4527 50  0000 C CNN
F 2 "" H 3000 4700 50  0001 C CNN
F 3 "" H 3000 4700 50  0001 C CNN
	1    3000 4700
	1    0    0    -1  
$EndComp
Text Notes 1500 3600 0    50   ~ 0
Power Selector Circuit
Text Label 9650 4650 2    50   ~ 0
5V
$Comp
L Device:Q_NMOS_DGS Q4
U 1 1 608FB69E
P 5350 2100
F 0 "Q4" H 5554 2146 50  0000 L CNN
F 1 "Q_NMOS_DGS" H 5554 2055 50  0000 L CNN
F 2 "Package_TO_SOT_SMD:SOT-23" H 5550 2200 50  0001 C CNN
F 3 "~" H 5350 2100 50  0001 C CNN
	1    5350 2100
	1    0    0    -1  
$EndComp
Wire Wire Line
	5150 1450 5150 2100
Connection ~ 5150 1450
Wire Wire Line
	5150 1450 5450 1450
Wire Wire Line
	4850 2300 5450 2300
Wire Wire Line
	5450 1900 5450 1750
Text Notes 5550 2250 0    20   ~ 0
*NB find NMOS without zener
$Comp
L Device:R_US R25
U 1 1 60851342
P 7050 5300
F 0 "R25" H 7118 5346 50  0000 L CNN
F 1 "1M" H 7118 5255 50  0000 L CNN
F 2 "Resistor_SMD:R_0603_1608Metric" V 7090 5290 50  0001 C CNN
F 3 "~" H 7050 5300 50  0001 C CNN
	1    7050 5300
	1    0    0    -1  
$EndComp
$Comp
L Device:R_US R24
U 1 1 60850819
P 7050 4800
F 0 "R24" H 7118 4846 50  0000 L CNN
F 1 "990k" H 7118 4755 50  0000 L CNN
F 2 "Resistor_SMD:R_0603_1608Metric" V 7090 4790 50  0001 C CNN
F 3 "~" H 7050 4800 50  0001 C CNN
	1    7050 4800
	1    0    0    -1  
$EndComp
Text HLabel 1900 1100 0    50   Input ~ 0
5Vwall
Text Label 4650 1250 0    50   ~ 0
5Vin
Wire Wire Line
	1900 1300 1900 1100
Wire Wire Line
	1900 1100 2050 1100
Text HLabel 10150 4650 2    50   Input ~ 0
5V
Text HLabel 10150 4850 2    50   Input ~ 0
~PWR
Text HLabel 10150 5050 2    50   Input ~ 0
~CHRG
Wire Wire Line
	9650 4650 10150 4650
Wire Wire Line
	9650 4850 10150 4850
Wire Wire Line
	9650 5050 10150 5050
Wire Wire Line
	5450 1450 5450 1300
Text HLabel 5450 1300 0    50   Input ~ 0
Vbat
$Comp
L Device:R_US R26
U 1 1 607869E1
P 7350 5700
F 0 "R26" H 7418 5746 50  0000 L CNN
F 1 "20m" H 7418 5655 50  0000 L CNN
F 2 "Resistor_SMD:R_0603_1608Metric" V 7390 5690 50  0001 C CNN
F 3 "~" H 7350 5700 50  0001 C CNN
	1    7350 5700
	0    -1   -1   0   
$EndComp
Text Label 7050 4350 0    50   ~ 0
5V
Wire Wire Line
	7050 5700 7200 5700
Wire Wire Line
	7050 5700 7050 5450
Wire Wire Line
	7050 5150 7050 4950
Wire Wire Line
	7050 4650 7050 4350
Wire Wire Line
	7900 5700 7900 5150
Wire Wire Line
	7500 5700 7900 5700
Wire Wire Line
	7900 5700 8100 5700
Connection ~ 7900 5700
Text HLabel 8100 5700 2    50   Input ~ 0
GND'
Wire Wire Line
	7900 4950 7050 4950
Connection ~ 7050 4950
Wire Wire Line
	8500 5050 8700 5050
Text Label 8700 5050 0    50   ~ 0
~SD
Text Notes 7250 4150 0    50   ~ 0
Current Protection Circuit
Text Notes 7500 7500 0    50   ~ 0
PSU and Battery Charger Sub-Module
Connection ~ 6050 1450
$Comp
L Device:L L1
U 1 1 6079EDC7
P 6200 1450
F 0 "L1" V 6019 1450 50  0000 C CNN
F 1 "3.3u" V 6110 1450 50  0000 C CNN
F 2 "Inductor_SMD:L_0603_1608Metric" H 6200 1450 50  0001 C CNN
F 3 "~" H 6200 1450 50  0001 C CNN
	1    6200 1450
	0    1    1    0   
$EndComp
Wire Wire Line
	6050 1450 6050 1650
Wire Wire Line
	6050 1650 6050 1850
Connection ~ 6050 1650
$Comp
L Device:L L2
U 1 1 607A2163
P 6200 1650
F 0 "L2" V 6019 1650 50  0000 C CNN
F 1 "3.3u" V 6110 1650 50  0000 C CNN
F 2 "Inductor_SMD:L_0603_1608Metric" H 6200 1650 50  0001 C CNN
F 3 "~" H 6200 1650 50  0001 C CNN
	1    6200 1650
	0    1    1    0   
$EndComp
Wire Wire Line
	2400 1250 3500 1250
$Comp
L Device:C C11
U 1 1 609E3535
P 9850 1750
F 0 "C11" H 9965 1796 50  0000 L CNN
F 1 "2.2m" H 9965 1705 50  0000 L CNN
F 2 "Capacitor_SMD:C_0805_2012Metric" H 9888 1600 50  0001 C CNN
F 3 "~" H 9850 1750 50  0001 C CNN
	1    9850 1750
	1    0    0    -1  
$EndComp
Wire Wire Line
	9350 1550 9850 1550
Wire Wire Line
	9850 1550 9850 1600
Connection ~ 9350 1550
Wire Wire Line
	9850 1950 9850 1900
$Comp
L Device:Q_NMOS_DSG Q3
U 1 1 609F1B30
P 3400 6550
F 0 "Q3" H 3604 6596 50  0000 L CNN
F 1 "Q_NMOS_DSG" H 3604 6505 50  0000 L CNN
F 2 "Package_TO_SOT_SMD:SOT-23" H 3600 6650 50  0001 C CNN
F 3 "~" H 3400 6550 50  0001 C CNN
	1    3400 6550
	1    0    0    -1  
$EndComp
Text Label 2900 6550 0    50   ~ 0
5Vin
$Comp
L Device:R_US R21
U 1 1 609FC98A
P 3500 6100
F 0 "R21" H 3568 6146 50  0000 L CNN
F 1 "100k" H 3568 6055 50  0000 L CNN
F 2 "Resistor_SMD:R_0603_1608Metric" V 3540 6090 50  0001 C CNN
F 3 "~" H 3500 6100 50  0001 C CNN
	1    3500 6100
	1    0    0    -1  
$EndComp
Text HLabel 3500 5950 0    50   Input ~ 0
Vbat
$Comp
L power:GND #PWR010
U 1 1 609FE63D
P 3500 6950
F 0 "#PWR010" H 3500 6700 50  0001 C CNN
F 1 "GND" H 3505 6777 50  0000 C CNN
F 2 "" H 3500 6950 50  0001 C CNN
F 3 "" H 3500 6950 50  0001 C CNN
	1    3500 6950
	1    0    0    -1  
$EndComp
Wire Wire Line
	2900 6550 3200 6550
Wire Wire Line
	3500 6350 3500 6300
Wire Wire Line
	3500 6950 3500 6750
Wire Wire Line
	3500 6300 4550 6300
Wire Wire Line
	4550 6500 4750 6500
Wire Wire Line
	4550 6300 4550 6500
Connection ~ 3500 6300
Wire Wire Line
	3500 6300 3500 6250
Wire Wire Line
	4550 6300 4750 6300
Connection ~ 4550 6300
Text Label 4750 6300 0    50   ~ 0
~EN~
Text Label 4750 6500 0    50   ~ 0
~SD~
Text Notes 3200 5800 0    50   ~ 0
Control Circuit for enables/disables\n
Text GLabel 7900 5150 0    50   Input ~ 0
OP4-
Text GLabel 7900 4950 1    50   Input ~ 0
OP4+
Text GLabel 8500 5050 0    50   Input ~ 0
OP4out
$Comp
L Device:C C6
U 1 1 607A9EF3
P 8050 3050
F 0 "C6" H 8165 3096 50  0000 L CNN
F 1 "150p" H 8165 3005 50  0000 L CNN
F 2 "Capacitor_SMD:C_0805_2012Metric" H 8088 2900 50  0001 C CNN
F 3 "~" H 8050 3050 50  0001 C CNN
	1    8050 3050
	1    0    0    -1  
$EndComp
Wire Wire Line
	9350 2350 9350 2800
$Comp
L LTC3124IFE#PBF:LTC3124IFE#PBF IC2
U 1 1 60BB2D39
P 6550 1450
F 0 "IC2" H 7250 1715 50  0000 C CNN
F 1 "LTC3124IFE#PBF" H 7250 1624 50  0000 C CNN
F 2 "lib:SOP65P640X110-17N" H 7800 1550 50  0001 L CNN
F 3 "https://eu.mouser.com/datasheet/2/609/3124f-1271619.pdf" H 7800 1450 50  0001 L CNN
F 4 "LINEAR TECHNOLOGY - LTC3124IFE#PBF - SYNCHRONOUS STEP-UP DC/DC CONVERTER" H 7800 1350 50  0001 L CNN "Description"
F 5 "1.1" H 7800 1250 50  0001 L CNN "Height"
F 6 "Linear Technology" H 7800 1150 50  0001 L CNN "Manufacturer_Name"
F 7 "LTC3124IFE#PBF" H 7800 1050 50  0001 L CNN "Manufacturer_Part_Number"
F 8 "584-LTC3124IFE#PBF" H 7800 950 50  0001 L CNN "Mouser Part Number"
F 9 "https://www.mouser.com/Search/Refine.aspx?Keyword=584-LTC3124IFE%23PBF" H 7800 850 50  0001 L CNN "Mouser Price/Stock"
F 10 "" H 7800 750 50  0001 L CNN "Arrow Part Number"
F 11 "" H 7800 650 50  0001 L CNN "Arrow Price/Stock"
	1    6550 1450
	1    0    0    -1  
$EndComp
$Comp
L power:GND #PWR016
U 1 1 609EAA3C
P 9850 1950
F 0 "#PWR016" H 9850 1700 50  0001 C CNN
F 1 "GND" H 9855 1777 50  0000 C CNN
F 2 "" H 9850 1950 50  0001 C CNN
F 3 "" H 9850 1950 50  0001 C CNN
	1    9850 1950
	1    0    0    -1  
$EndComp
Text Notes 9750 4400 0    50   ~ 0
Outputs\n
Connection ~ 7250 3500
Wire Wire Line
	7250 3500 7300 3500
Wire Wire Line
	6350 1450 6550 1450
Wire Wire Line
	6350 1650 6550 1650
$Comp
L power:GND #PWR012
U 1 1 60C14CB4
P 6550 1550
F 0 "#PWR012" H 6550 1300 50  0001 C CNN
F 1 "GND" V 6555 1422 50  0000 R CNN
F 2 "" H 6550 1550 50  0001 C CNN
F 3 "" H 6550 1550 50  0001 C CNN
	1    6550 1550
	0    1    1    0   
$EndComp
$Comp
L power:GND #PWR013
U 1 1 60C15704
P 6550 1750
F 0 "#PWR013" H 6550 1500 50  0001 C CNN
F 1 "GND" V 6555 1622 50  0000 R CNN
F 2 "" H 6550 1750 50  0001 C CNN
F 3 "" H 6550 1750 50  0001 C CNN
	1    6550 1750
	0    1    1    0   
$EndComp
Wire Wire Line
	6550 1850 6050 1850
Connection ~ 6050 1850
Wire Wire Line
	6050 1850 6050 2500
Connection ~ 6350 3500
Wire Wire Line
	6050 2800 6050 3500
NoConn ~ 6550 1950
Wire Wire Line
	6550 2050 6350 2050
Wire Wire Line
	6350 2050 6350 2650
Wire Wire Line
	6550 2150 6550 3200
Wire Wire Line
	8050 2850 8050 2150
Wire Wire Line
	8050 2150 7950 2150
Connection ~ 8050 2850
Wire Wire Line
	7950 1450 7950 1200
Wire Wire Line
	7950 1200 8700 1200
Wire Wire Line
	7950 1550 8400 1550
Wire Wire Line
	7950 1750 8400 1750
Wire Wire Line
	8400 1750 8400 1550
Connection ~ 8400 1550
Wire Wire Line
	8400 1550 8700 1550
Wire Wire Line
	7950 1850 8700 1850
Connection ~ 8700 1850
Wire Wire Line
	8700 1850 9050 1850
Wire Wire Line
	7950 2050 8350 2050
Wire Wire Line
	8350 2050 8350 2350
Wire Wire Line
	8350 2350 9350 2350
Connection ~ 9350 2350
Wire Wire Line
	8450 3500 9350 3500
Wire Wire Line
	9350 3100 9350 3500
Text Label 3000 4400 0    50   ~ 0
5V
Text Notes 7650 4550 0    50   ~ 0
Note: Due to using quad opamp, the\nopamp chip is listed in the gas gauge sheet
$Comp
L LTC4077:LTC4077-Battery_Management U3
U 1 1 60BB42FC
P 4050 1650
F 0 "U3" H 4000 2315 50  0000 C CNN
F 1 "LTC4077" H 4000 2224 50  0000 C CNN
F 2 "Package_DFN_QFN:DFN-10-1EP_3x3mm_P0.5mm_EP1.7x2.5mm" V 3950 1700 50  0001 C CNN
F 3 "" V 4000 1750 50  0001 C CNN
	1    4050 1650
	1    0    0    -1  
$EndComp
Text Notes 8100 7650 0    50   ~ 0
11/05/2021
Text Notes 10550 7650 0    50   ~ 0
1.0
$EndSCHEMATC
