EESchema Schematic File Version 4
EELAYER 30 0
EELAYER END
$Descr A4 11693 8268
encoding utf-8
Sheet 3 4
Title ""
Date ""
Rev ""
Comp ""
Comment1 ""
Comment2 ""
Comment3 ""
Comment4 ""
$EndDescr
Text Notes 7350 7500 0    50   ~ 0
Gas Gauge and Battery Status LED Sub-Module
Text Notes 10550 7650 0    50   ~ 0
1.0
Text Notes 8150 7650 0    50   ~ 0
11/05/2021
$Comp
L Device:R_Small_US R7
U 1 1 606DED25
P 5150 3500
F 0 "R7" H 5218 3546 50  0000 L CNN
F 1 "240" H 5218 3455 50  0000 L CNN
F 2 "Resistor_SMD:R_0603_1608Metric" H 5150 3500 50  0001 C CNN
F 3 "~" H 5150 3500 50  0001 C CNN
	1    5150 3500
	1    0    0    -1  
$EndComp
$Comp
L Device:R_Small_US R8
U 1 1 606DFCE2
P 5150 3950
F 0 "R8" H 5218 3996 50  0000 L CNN
F 1 "820" H 5218 3905 50  0000 L CNN
F 2 "Resistor_SMD:R_0603_1608Metric" H 5150 3950 50  0001 C CNN
F 3 "~" H 5150 3950 50  0001 C CNN
	1    5150 3950
	1    0    0    -1  
$EndComp
$Comp
L Device:R_Small_US R10
U 1 1 606E0937
P 5150 4500
F 0 "R10" H 5218 4546 50  0000 L CNN
F 1 "820" H 5218 4455 50  0000 L CNN
F 2 "Resistor_SMD:R_0603_1608Metric" H 5150 4500 50  0001 C CNN
F 3 "~" H 5150 4500 50  0001 C CNN
	1    5150 4500
	1    0    0    -1  
$EndComp
$Comp
L Device:LED D3
U 1 1 606F27BF
P 8700 2600
F 0 "D3" V 8739 2482 50  0000 R CNN
F 1 "TLHY4205" V 8450 2750 50  0000 R CNN
F 2 "Diode_SMD:D_1206_3216Metric" H 8700 2600 50  0001 C CNN
F 3 "~" H 8700 2600 50  0001 C CNN
	1    8700 2600
	0    -1   -1   0   
$EndComp
$Comp
L Device:LED D4
U 1 1 606F2A67
P 9100 2600
F 0 "D4" V 9139 2482 50  0000 R CNN
F 1 "TLHR4205" V 8850 2700 50  0000 R CNN
F 2 "Diode_SMD:D_1206_3216Metric" H 9100 2600 50  0001 C CNN
F 3 "~" H 9100 2600 50  0001 C CNN
	1    9100 2600
	0    -1   -1   0   
$EndComp
$Comp
L Device:R_Small_US R14
U 1 1 606F305A
P 8300 2200
F 0 "R14" H 8368 2246 50  0000 L CNN
F 1 "130" H 8368 2155 50  0000 L CNN
F 2 "Resistor_SMD:R_0603_1608Metric" H 8300 2200 50  0001 C CNN
F 3 "~" H 8300 2200 50  0001 C CNN
	1    8300 2200
	1    0    0    -1  
$EndComp
$Comp
L Device:R_Small_US R15
U 1 1 606F3BE6
P 8700 2200
F 0 "R15" H 8768 2246 50  0000 L CNN
F 1 "130" H 8768 2155 50  0000 L CNN
F 2 "Resistor_SMD:R_0603_1608Metric" H 8700 2200 50  0001 C CNN
F 3 "~" H 8700 2200 50  0001 C CNN
	1    8700 2200
	1    0    0    -1  
$EndComp
$Comp
L Device:R_Small_US R16
U 1 1 606F3EE3
P 9100 2200
F 0 "R16" H 9168 2246 50  0000 L CNN
F 1 "150" H 9168 2155 50  0000 L CNN
F 2 "Resistor_SMD:R_0603_1608Metric" H 9100 2200 50  0001 C CNN
F 3 "~" H 9100 2200 50  0001 C CNN
	1    9100 2200
	1    0    0    -1  
$EndComp
Wire Wire Line
	8300 2450 8300 2300
Wire Wire Line
	8700 2450 8700 2300
Wire Wire Line
	9100 2450 9100 2300
$Comp
L Device:LED D2
U 1 1 606F1CF4
P 8300 2600
F 0 "D2" V 8339 2482 50  0000 R CNN
F 1 "TLHG4205" V 8050 2800 50  0000 R CNN
F 2 "Diode_SMD:D_1206_3216Metric" H 8300 2600 50  0001 C CNN
F 3 "~" H 8300 2600 50  0001 C CNN
	1    8300 2600
	0    -1   -1   0   
$EndComp
Wire Wire Line
	8300 1550 8300 2100
Connection ~ 8300 1550
Wire Wire Line
	8300 1550 8700 1550
Wire Wire Line
	8700 1550 8700 2100
Wire Wire Line
	9100 1550 9100 2100
$Comp
L Device:R_Small_US R12
U 1 1 6073E253
P 5150 5150
F 0 "R12" H 5218 5196 50  0000 L CNN
F 1 "13k" H 5218 5105 50  0000 L CNN
F 2 "Resistor_SMD:R_0603_1608Metric" H 5150 5150 50  0001 C CNN
F 3 "~" H 5150 5150 50  0001 C CNN
	1    5150 5150
	1    0    0    -1  
$EndComp
Wire Wire Line
	5400 1750 5150 1750
Connection ~ 4100 1550
Wire Wire Line
	4100 1550 4100 1150
Wire Wire Line
	8700 1550 9100 1550
Connection ~ 8700 1550
$Comp
L Device:LED D5
U 1 1 6076652F
P 9450 5450
F 0 "D5" V 9500 5650 50  0000 R CNN
F 1 "VLMW41S1T1-5K8L-08" V 9400 6400 50  0000 R CNN
F 2 "Diode_SMD:D_1206_3216Metric" H 9450 5450 50  0001 C CNN
F 3 "~" H 9450 5450 50  0001 C CNN
	1    9450 5450
	0    -1   -1   0   
$EndComp
$Comp
L Device:LED D6
U 1 1 60765E33
P 9750 5450
F 0 "D6" V 9789 5332 50  0000 R CNN
F 1 "VLMW41S1T1-5K8L-08" V 9698 5332 50  0000 R CNN
F 2 "Diode_SMD:D_1206_3216Metric" H 9750 5450 50  0001 C CNN
F 3 "~" H 9750 5450 50  0001 C CNN
	1    9750 5450
	0    -1   -1   0   
$EndComp
Wire Wire Line
	9450 5900 9450 5600
Wire Wire Line
	5650 5900 9450 5900
Wire Wire Line
	9750 6100 9750 5600
$Comp
L Device:R_Small_US R17
U 1 1 6076D4FF
P 9450 5000
F 0 "R17" H 9518 5046 50  0000 L CNN
F 1 "85" H 9518 4955 50  0000 L CNN
F 2 "Resistor_SMD:R_0603_1608Metric" H 9450 5000 50  0001 C CNN
F 3 "~" H 9450 5000 50  0001 C CNN
	1    9450 5000
	1    0    0    -1  
$EndComp
$Comp
L Device:R_Small_US R18
U 1 1 6076D657
P 9750 5000
F 0 "R18" H 9818 5046 50  0000 L CNN
F 1 "85" H 9818 4955 50  0000 L CNN
F 2 "Resistor_SMD:R_0603_1608Metric" H 9750 5000 50  0001 C CNN
F 3 "~" H 9750 5000 50  0001 C CNN
	1    9750 5000
	1    0    0    -1  
$EndComp
Wire Wire Line
	9450 4900 9450 1150
Connection ~ 9450 1150
Wire Wire Line
	9750 4900 9750 1150
Wire Wire Line
	9450 1150 9750 1150
Wire Wire Line
	9450 5300 9450 5100
Wire Wire Line
	9750 5100 9750 5300
Wire Wire Line
	5650 6100 9750 6100
$Comp
L power:GND #PWR05
U 1 1 607EEDFF
P 5150 5550
F 0 "#PWR05" H 5150 5300 50  0001 C CNN
F 1 "GND" H 5155 5377 50  0000 C CNN
F 2 "" H 5150 5550 50  0001 C CNN
F 3 "" H 5150 5550 50  0001 C CNN
	1    5150 5550
	1    0    0    -1  
$EndComp
Text HLabel 2650 1550 0    50   Input ~ 0
5V
Text HLabel 5650 5900 0    50   Input ~ 0
~PWR
Text HLabel 5650 6100 0    50   Input ~ 0
~CHRG
Wire Wire Line
	2650 1550 4100 1550
Text HLabel 3800 1750 0    50   Input ~ 0
Vbat
$Comp
L Device:R_Small_US R13
U 1 1 609D5886
P 5150 5400
F 0 "R13" H 5218 5446 50  0000 L CNN
F 1 "330" H 5218 5355 50  0000 L CNN
F 2 "Resistor_SMD:R_0603_1608Metric" H 5150 5400 50  0001 C CNN
F 3 "~" H 5150 5400 50  0001 C CNN
	1    5150 5400
	1    0    0    -1  
$EndComp
$Comp
L Device:R_Small_US R11
U 1 1 609D648A
P 5150 4750
F 0 "R11" H 5218 4796 50  0000 L CNN
F 1 "13" H 5218 4705 50  0000 L CNN
F 2 "Resistor_SMD:R_0603_1608Metric" H 5150 4750 50  0001 C CNN
F 3 "~" H 5150 4750 50  0001 C CNN
	1    5150 4750
	1    0    0    -1  
$EndComp
$Comp
L Device:R_Small_US R9
U 1 1 609D6BF0
P 5150 4200
F 0 "R9" H 5218 4246 50  0000 L CNN
F 1 "13" H 5218 4155 50  0000 L CNN
F 2 "Resistor_SMD:R_0603_1608Metric" H 5150 4200 50  0001 C CNN
F 3 "~" H 5150 4200 50  0001 C CNN
	1    5150 4200
	1    0    0    -1  
$EndComp
$Comp
L Device:R_Small_US R6
U 1 1 609D6FBC
P 5150 3250
F 0 "R6" H 5218 3296 50  0000 L CNN
F 1 "5k6" H 5218 3205 50  0000 L CNN
F 2 "Resistor_SMD:R_0603_1608Metric" H 5150 3250 50  0001 C CNN
F 3 "~" H 5150 3250 50  0001 C CNN
	1    5150 3250
	1    0    0    -1  
$EndComp
Wire Wire Line
	5150 5250 5150 5300
Wire Wire Line
	5150 5500 5150 5550
Wire Wire Line
	5150 4600 5150 4650
Wire Wire Line
	5150 4100 5150 4050
Wire Wire Line
	5150 3350 5150 3400
Wire Wire Line
	5150 3150 5150 1750
Connection ~ 5150 1750
Wire Wire Line
	4100 1150 9450 1150
Wire Wire Line
	8300 3650 8300 2750
Wire Wire Line
	5150 4300 5150 4350
Wire Wire Line
	5150 4350 5150 4400
Connection ~ 5150 4350
Wire Wire Line
	5150 4350 5950 4350
Wire Wire Line
	5150 3650 5150 3850
Wire Wire Line
	5150 3600 5150 3650
Connection ~ 5150 3650
Wire Wire Line
	5150 3650 5650 3650
Wire Wire Line
	7150 4550 9100 4550
Wire Wire Line
	9100 2750 9100 4550
Wire Wire Line
	7400 4350 7150 4350
Wire Wire Line
	7350 4850 7350 4450
Wire Wire Line
	7350 4450 7150 4450
Wire Wire Line
	5400 4850 7350 4850
$Comp
L power:GND #PWR06
U 1 1 60B9C267
P 7550 4250
F 0 "#PWR06" H 7550 4000 50  0001 C CNN
F 1 "GND" H 7555 4077 50  0000 C CNN
F 2 "" H 7550 4250 50  0001 C CNN
F 3 "" H 7550 4250 50  0001 C CNN
	1    7550 4250
	1    0    0    -1  
$EndComp
Wire Wire Line
	7150 4250 7550 4250
Wire Wire Line
	5550 4250 5550 1550
Wire Wire Line
	5550 4250 5950 4250
Connection ~ 5550 1550
Wire Wire Line
	5550 1550 8300 1550
Wire Wire Line
	5400 1750 5400 3550
Connection ~ 5400 3550
Wire Wire Line
	5400 3550 5400 4450
Wire Wire Line
	5400 4450 5950 4450
Connection ~ 5400 4450
Wire Wire Line
	5400 4450 5400 4850
Wire Wire Line
	5650 4150 5650 3650
Wire Wire Line
	5650 4150 5950 4150
Wire Wire Line
	5750 4050 5750 3550
Wire Wire Line
	5750 4050 5950 4050
Wire Wire Line
	5750 3550 5400 3550
Wire Wire Line
	5950 4750 8700 4750
Wire Wire Line
	8700 2750 8700 4750
Wire Wire Line
	5950 4550 5950 4750
Wire Wire Line
	5150 4850 5150 4950
Wire Wire Line
	7400 4950 5150 4950
Wire Wire Line
	7400 4350 7400 4950
Connection ~ 5150 4950
Wire Wire Line
	5150 4950 5150 5050
Wire Wire Line
	5950 3950 5850 3950
Wire Wire Line
	5850 3950 5850 3650
Wire Wire Line
	5850 3650 8300 3650
Text GLabel 7150 4050 2    50   Input ~ 0
OP4-
Text GLabel 7150 4150 2    50   Input ~ 0
OP4+
Text GLabel 7150 3950 2    50   Input ~ 0
OP4out
$Comp
L ADA4505-4ARUZ:ADA4505-4ARUZ IC1
U 1 1 60B86AAE
P 5950 3950
F 0 "IC1" H 6550 4215 50  0000 C CNN
F 1 "ADA4505-4ARUZ" H 6550 4124 50  0000 C CNN
F 2 "lib:SOP65P640X120-14N" H 7000 4050 50  0001 L CNN
F 3 "" H 7000 3950 50  0001 L CNN
F 4 "Analog Devices ADA4505-4ARUZ, Quad Low Power Op Amp, 50kHz Rail-Rail, 1.8  5 V, 14-Pin TSSOP" H 7000 3850 50  0001 L CNN "Description"
F 5 "" H 7000 3750 50  0001 L CNN "Height"
F 6 "Analog Devices" H 7000 3650 50  0001 L CNN "Manufacturer_Name"
F 7 "ADA4505-4ARUZ" H 7000 3550 50  0001 L CNN "Manufacturer_Part_Number"
F 8 "584-ADA4505-4ARUZ" H 7000 3450 50  0001 L CNN "Mouser Part Number"
F 9 "https://www.mouser.co.uk/ProductDetail/Analog-Devices/ADA4505-4ARUZ?qs=BpaRKvA4VqGQGaI7ayc2uQ%3D%3D" H 7000 3350 50  0001 L CNN "Mouser Price/Stock"
F 10 "ADA4505-4ARUZ" H 7000 3250 50  0001 L CNN "Arrow Part Number"
F 11 "https://www.arrow.com/en/products/ada4505-4aruz/analog-devices" H 7000 3150 50  0001 L CNN "Arrow Price/Stock"
	1    5950 3950
	1    0    0    -1  
$EndComp
Wire Wire Line
	4100 1550 5550 1550
Wire Wire Line
	3800 1750 5150 1750
$EndSCHEMATC
