PCBNEW-LibModule-V1  2021-06-01 19:16:54
# encoding utf-8
Units mm
$INDEX
SOP65P640X120-14N
$EndINDEX
$MODULE SOP65P640X120-14N
Po 0 0 0 15 60b67996 00000000 ~~
Li SOP65P640X120-14N
Cd SOP65P640X120-14N
Kw Integrated Circuit
Sc 0
At SMD
AR 
Op 0 0 0
T0 -3.4544 -4.445 1.27 1.27 0 0.254 N V 21 N "IC**"
T1 -3.4544 -4.445 1.27 1.27 0 0.254 N I 21 N "SOP65P640X120-14N"
DS -2.2606 -1.8034 -2.2606 -2.1082 0.1524 24
DS -2.2606 -2.1082 -3.2004 -2.1082 0.1524 24
DS -3.2004 -2.1082 -3.2004 -1.8034 0.1524 24
DS -3.2004 -1.8034 -2.2606 -1.8034 0.1524 24
DS -2.2606 -1.143 -2.2606 -1.4478 0.1524 24
DS -2.2606 -1.4478 -3.2004 -1.4478 0.1524 24
DS -3.2004 -1.4478 -3.2004 -1.143 0.1524 24
DS -3.2004 -1.143 -2.2606 -1.143 0.1524 24
DS -2.2606 -0.508 -2.2606 -0.7874 0.1524 24
DS -2.2606 -0.7874 -3.2004 -0.7874 0.1524 24
DS -3.2004 -0.7874 -3.2004 -0.508 0.1524 24
DS -3.2004 -0.508 -2.2606 -0.508 0.1524 24
DS -2.2606 0.1524 -2.2606 -0.1524 0.1524 24
DS -2.2606 -0.1524 -3.2004 -0.1524 0.1524 24
DS -3.2004 -0.1524 -3.2004 0.1524 0.1524 24
DS -3.2004 0.1524 -2.2606 0.1524 0.1524 24
DS -2.2606 0.7874 -2.2606 0.508 0.1524 24
DS -2.2606 0.508 -3.2004 0.508 0.1524 24
DS -3.2004 0.508 -3.2004 0.7874 0.1524 24
DS -3.2004 0.7874 -2.2606 0.7874 0.1524 24
DS -2.2606 1.4478 -2.2606 1.143 0.1524 24
DS -2.2606 1.143 -3.2004 1.143 0.1524 24
DS -3.2004 1.143 -3.2004 1.4478 0.1524 24
DS -3.2004 1.4478 -2.2606 1.4478 0.1524 24
DS -2.2606 2.1082 -2.2606 1.8034 0.1524 24
DS -2.2606 1.8034 -3.2004 1.8034 0.1524 24
DS -3.2004 1.8034 -3.2004 2.1082 0.1524 24
DS -3.2004 2.1082 -2.2606 2.1082 0.1524 24
DS 2.2606 1.8034 2.2606 2.1082 0.1524 24
DS 2.2606 2.1082 3.2004 2.1082 0.1524 24
DS 3.2004 2.1082 3.2004 1.8034 0.1524 24
DS 3.2004 1.8034 2.2606 1.8034 0.1524 24
DS 2.2606 1.143 2.2606 1.4478 0.1524 24
DS 2.2606 1.4478 3.2004 1.4478 0.1524 24
DS 3.2004 1.4478 3.2004 1.143 0.1524 24
DS 3.2004 1.143 2.2606 1.143 0.1524 24
DS 2.2606 0.508 2.2606 0.7874 0.1524 24
DS 2.2606 0.7874 3.2004 0.7874 0.1524 24
DS 3.2004 0.7874 3.2004 0.508 0.1524 24
DS 3.2004 0.508 2.2606 0.508 0.1524 24
DS 2.2606 -0.1524 2.2606 0.1524 0.1524 24
DS 2.2606 0.1524 3.2004 0.1524 0.1524 24
DS 3.2004 0.1524 3.2004 -0.1524 0.1524 24
DS 3.2004 -0.1524 2.2606 -0.1524 0.1524 24
DS 2.2606 -0.7874 2.2606 -0.508 0.1524 24
DS 2.2606 -0.508 3.2004 -0.508 0.1524 24
DS 3.2004 -0.508 3.2004 -0.7874 0.1524 24
DS 3.2004 -0.7874 2.2606 -0.7874 0.1524 24
DS 2.2606 -1.4478 2.2606 -1.143 0.1524 24
DS 2.2606 -1.143 3.2004 -1.143 0.1524 24
DS 3.2004 -1.143 3.2004 -1.4478 0.1524 24
DS 3.2004 -1.4478 2.2606 -1.4478 0.1524 24
DS 2.2606 -2.1082 2.2606 -1.8034 0.1524 24
DS 2.2606 -1.8034 3.2004 -1.8034 0.1524 24
DS 3.2004 -1.8034 3.2004 -2.1082 0.1524 24
DS 3.2004 -2.1082 2.2606 -2.1082 0.1524 24
DS -2.2606 2.54 2.2606 2.54 0.1524 24
DS 2.2606 2.54 2.2606 -2.54 0.1524 24
DS 2.2606 -2.54 0.3048 -2.54 0.1524 24
DS 0.3048 -2.54 -0.3048 -2.54 0.1524 24
DS -0.3048 -2.54 -2.2606 -2.54 0.1524 24
DS -2.2606 -2.54 -2.2606 2.54 0.1524 24
DS -2.2606 2.54 2.2606 2.54 0.1524 21
DS 2.2606 -2.54 0.3048 -2.54 0.1524 21
DS 0.3048 -2.54 -0.3048 -2.54 0.1524 21
DS -0.3048 -2.54 -2.2606 -2.54 0.1524 21
DA 1.6653345369377E-16 -2.54 0.3048 -2.54 1800 0.1524 24
DA 1.6653345369377E-16 -2.54 0.3048 -2.54 1800 0.1524 21
$PAD
Po -2.8194 -1.9558
Sh "1" R 0.3556 1.4732 0 0 900
At SMD N 00888000
Ne 0 ""
$EndPAD
$PAD
Po -2.8194 -1.2954
Sh "2" R 0.3556 1.4732 0 0 900
At SMD N 00888000
Ne 0 ""
$EndPAD
$PAD
Po -2.8194 -0.6604
Sh "3" R 0.3556 1.4732 0 0 900
At SMD N 00888000
Ne 0 ""
$EndPAD
$PAD
Po -2.8194 0
Sh "4" R 0.3556 1.4732 0 0 900
At SMD N 00888000
Ne 0 ""
$EndPAD
$PAD
Po -2.8194 0.6604
Sh "5" R 0.3556 1.4732 0 0 900
At SMD N 00888000
Ne 0 ""
$EndPAD
$PAD
Po -2.8194 1.2954
Sh "6" R 0.3556 1.4732 0 0 900
At SMD N 00888000
Ne 0 ""
$EndPAD
$PAD
Po -2.8194 1.9558
Sh "7" R 0.3556 1.4732 0 0 900
At SMD N 00888000
Ne 0 ""
$EndPAD
$PAD
Po 2.8194 1.9558
Sh "8" R 0.3556 1.4732 0 0 900
At SMD N 00888000
Ne 0 ""
$EndPAD
$PAD
Po 2.8194 1.2954
Sh "9" R 0.3556 1.4732 0 0 900
At SMD N 00888000
Ne 0 ""
$EndPAD
$PAD
Po 2.8194 0.6604
Sh "10" R 0.3556 1.4732 0 0 900
At SMD N 00888000
Ne 0 ""
$EndPAD
$PAD
Po 2.8194 0
Sh "11" R 0.3556 1.4732 0 0 900
At SMD N 00888000
Ne 0 ""
$EndPAD
$PAD
Po 2.8194 -0.6604
Sh "12" R 0.3556 1.4732 0 0 900
At SMD N 00888000
Ne 0 ""
$EndPAD
$PAD
Po 2.8194 -1.2954
Sh "13" R 0.3556 1.4732 0 0 900
At SMD N 00888000
Ne 0 ""
$EndPAD
$PAD
Po 2.8194 -1.9558
Sh "14" R 0.3556 1.4732 0 0 900
At SMD N 00888000
Ne 0 ""
$EndPAD
$EndMODULE SOP65P640X120-14N
$EndLIBRARY
